{
  "swagger": "2.0",
  "info": {
    "description": "Description et mode d'emploi de l'API mis en place lors du développement de l'application LovliPlanet.\nAuteur: Thierno-Souleymane Bah\nEmail: bah01194151@gmail.com",
    "version": "1.0.0",
    "title": "LovliPlanet API",
    "contact": {
      "email": "bah01194151@gmail.com"
    }
  },
  "host": "localhost:3000",
  "basePath": "",
  "tags": [{
      "name": "users",
      "description": "Gerer les utilisateurs de l'application"
    },
    {
      "name": "events",
      "description": "Gerer les évènements de l'application"
    },
    {
      "name": "themes",
      "description": "Gerer les themes de l'application"
    },
    {
      "name": "notifications",
      "description": "Gerer les notifications de l'application"
    },
    {
      "name": "comments",
      "description": "Gerer les commentaires de l'application"
    }
  ],
  "schemes": [
    "https",
    "http"
  ],
  "consumes": [
    "application/json"
  ],
  "produces": [
    "application/json"
  ],
  "paths": {
    "/users": {
      "get": {
        "tags": [
          "users"
        ],
        "summary": "Get all users of the application",
        "description": "",
        "responses": {
          "200": {
            "description": "OK",
            "schema": {
              "$ref": "#/definitions/Users"
            }
          },
          "500": {
            "$ref": "#/responses/Standard500ErrorResponse"
          }
        }
      },
      "post": {
        "tags": [
          "users"
        ],
        "summary": "Add a new user to the application",
        "description": "",
        "parameters": [{
          "$ref": "#/parameters/user"
        }],
        "responses": {
          "200": {
            "description": "OK",
            "schema": {
              "$ref": "#/definitions/User"
            }
          },
          "404": {
            "description": "Invalid User parameter"
          },
          "500": {
            "$ref": "#/responses/Standard500ErrorResponse"
          }
        }
      }
    },
    "/users/{userId}": {
      "parameters": [{
        "$ref": "#/parameters/userId"
      }],
      "get": {
        "tags": [
          "users"
        ],
        "summary": "Get all informations from the user having id userId",
        "description": "",
        "responses": {
          "200": {
            "description": "OK",
            "schema": {
              "$ref": "#/definitions/User"
            }
          },
          "404": {
            "description": "Unknown userId parameter"
          },
          "500": {
            "$ref": "#/responses/Standard500ErrorResponse"
          }
        }
      },
      "put": {
        "tags": [
          "users"
        ],
        "parameters": [{
          "$ref": "#/parameters/user"
        }],
        "summary": "Edit user's informations from the user having id userId",
        "description": "",
        "responses": {
          "200": {
            "description": "OK",
            "schema": {
              "$ref": "#/definitions/User"
            }
          },
          "404": {
            "description": "Unknown userId parameter"
          },
          "500": {
            "$ref": "#/responses/Standard500ErrorResponse"
          }
        }
      },
      "delete": {
        "tags": [
          "users"
        ],
        "summary": "Delete user from the database having id userId",
        "description": "",
        "responses": {
          "200": {
            "description": "OK"
          },
          "404": {
            "description": "Unknown userId parameter"
          },
          "500": {
            "$ref": "#/responses/Standard500ErrorResponse"
          }
        }
      }
    },
    "/users/{userId}/notifications": {
      "parameters": [{
          "$ref": "#/parameters/userId"
        },
        {
          "$ref": "#/parameters/notification"
        }
      ],
      "post": {
        "tags": [
          "notifications"
        ],
        "summary": "Push a new notification concerning about user having id userId",
        "description": "",
        "responses": {
          "200": {
            "description": "OK",
            "schema": {
              "$ref": "#/definitions/User"
            }
          },
          "404": {
            "description": "Unknown userId parameter"
          },
          "500": {
            "$ref": "#/responses/Standard500ErrorResponse"
          }
        }
      }
    },
    "/users/{userId}/notifications/{notifId}": {
      "parameters": [{
          "$ref": "#/parameters/userId"
        },
        {
          "$ref": "#/parameters/notifId"
        },
        {
          "$ref": "#/parameters/notification"
        }
      ],
      "put": {
        "tags": [
          "notifications"
        ],
        "summary": "Edit notification informations from the notification having id notifId",
        "description": "",
        "responses": {
          "200": {
            "description": "OK",
            "schema": {
              "$ref": "#/definitions/User"
            }
          },
          "404": {
            "description": "Unknown userId parameter"
          },
          "500": {
            "$ref": "#/responses/Standard500ErrorResponse"
          }
        }
      }
    },
    "/themes": {
      "get": {
        "tags": [
          "themes"
        ],
        "summary": "Get all themes of the application",
        "description": "",
        "responses": {
          "200": {
            "description": "OK",
            "schema": {
              "$ref": "#/definitions/Themes"
            }
          },
          "500": {
            "$ref": "#/responses/Standard500ErrorResponse"
          }
        }
      },
      "post": {
        "tags": [
          "themes"
        ],
        "summary": "Add a new theme to the application",
        "description": "",
        "parameters": [{
          "$ref": "#/parameters/theme"
        }],
        "responses": {
          "200": {
            "description": "OK",
            "schema": {
              "$ref": "#/definitions/Theme"
            }
          },
          "404": {
            "description": "Invalid Theme parameter"
          },
          "500": {
            "$ref": "#/responses/Standard500ErrorResponse"
          }
        }
      }
    },
    "/themes/{themeId}": {
      "parameters": [{
        "$ref": "#/parameters/themeId"
      }],
      "get": {
        "tags": [
          "themes"
        ],
        "summary": "Get all informations from the theme having id themeId",
        "description": "",
        "responses": {
          "200": {
            "description": "OK",
            "schema": {
              "$ref": "#/definitions/Theme"
            }
          },
          "404": {
            "description": "Unknown themeId parameter"
          },
          "500": {
            "$ref": "#/responses/Standard500ErrorResponse"
          }
        }
      },
      "put": {
        "tags": [
          "themes"
        ],
        "parameters": [{
          "$ref": "#/parameters/theme"
        }],
        "summary": "Edit theme's informations from the theme having id themeId",
        "description": "",
        "responses": {
          "200": {
            "description": "OK",
            "schema": {
              "$ref": "#/definitions/Theme"
            }
          },
          "404": {
            "description": "Unknown themeId parameter"
          },
          "500": {
            "$ref": "#/responses/Standard500ErrorResponse"
          }
        }
      },
      "delete": {
        "tags": [
          "themes"
        ],
        "summary": "Delete theme from the database having id userId",
        "description": "",
        "responses": {
          "200": {
            "description": "OK"
          },
          "404": {
            "description": "Unknown userId parameter"
          },
          "500": {
            "$ref": "#/responses/Standard500ErrorResponse"
          }
        }
      }
    },
    "/events": {
      "get": {
        "tags": [
          "events"
        ],
        "summary": "Get all events of the application",
        "description": "",
        "responses": {
          "200": {
            "description": "OK",
            "schema": {
              "$ref": "#/definitions/Events"
            }
          },
          "500": {
            "$ref": "#/responses/Standard500ErrorResponse"
          }
        }
      },
      "post": {
        "tags": [
          "events"
        ],
        "summary": "Add a new event to the application",
        "description": "",
        "parameters": [{
          "$ref": "#/parameters/event"
        }],
        "responses": {
          "200": {
            "description": "OK",
            "schema": {
              "$ref": "#/definitions/Event"
            }
          },
          "404": {
            "description": "Invalid Event parameter"
          },
          "500": {
            "$ref": "#/responses/Standard500ErrorResponse"
          }
        }
      }
    },
    "/events/{eventId}": {
      "parameters": [{
        "$ref": "#/parameters/eventId"
      }],
      "get": {
        "tags": [
          "events"
        ],
        "summary": "Get all informations from the event having id eventId",
        "description": "",
        "responses": {
          "200": {
            "description": "OK",
            "schema": {
              "$ref": "#/definitions/Event"
            }
          },
          "404": {
            "description": "Unknown themeId parameter"
          },
          "500": {
            "$ref": "#/responses/Standard500ErrorResponse"
          }
        }
      },
      "put": {
        "tags": [
          "events"
        ],
        "parameters": [{
          "$ref": "#/parameters/event"
        }],
        "summary": "Edit event's informations from the event having id eventId",
        "description": "",
        "responses": {
          "200": {
            "description": "OK",
            "schema": {
              "$ref": "#/definitions/Event"
            }
          },
          "404": {
            "description": "Unknown eventId parameter"
          },
          "500": {
            "$ref": "#/responses/Standard500ErrorResponse"
          }
        }
      },
      "delete": {
        "tags": [
          "events"
        ],
        "summary": "Delete event from the database having id eventId",
        "description": "",
        "responses": {
          "200": {
            "description": "OK"
          },
          "404": {
            "description": "Unknown eventId parameter"
          },
          "500": {
            "$ref": "#/responses/Standard500ErrorResponse"
          }
        }
      }
    },
    "/events/{eventId}/comments": {
      "parameters": [{
          "$ref": "#/parameters/eventId"
        },
        {
          "$ref": "#/parameters/comment"
        }
      ],
      "post": {
        "tags": [
          "comments"
        ],
        "summary": "Add a new comment concerning about event having id eventId",
        "description": "",
        "responses": {
          "200": {
            "description": "OK",
            "schema": {
              "$ref": "#/definitions/Event"
            }
          },
          "404": {
            "description": "Unknown eventId parameter"
          },
          "500": {
            "$ref": "#/responses/Standard500ErrorResponse"
          }
        }
      }
    },
    "/events/{eventId}/comments/{commentId}": {
      "parameters": [{
          "$ref": "#/parameters/eventId"
        },
        {
          "$ref": "#/parameters/commentId"
        }
      ],
      "put": {
        "tags": [
          "comments"
        ],
        "parameters": [{
          "$ref": "#/parameters/comment"
        }],
        "summary": "Edit comment informations from the comment having id notifId",
        "description": "",
        "responses": {
          "200": {
            "description": "OK",
            "schema": {
              "$ref": "#/definitions/Event"
            }
          },
          "404": {
            "description": "Unknown parameters"
          },
          "500": {
            "$ref": "#/responses/Standard500ErrorResponse"
          }
        }
      },
      "delete": {
        "tags": [
          "comments"
        ],
        "summary": "Delete comment from the database having id commentId",
        "description": "",
        "responses": {
          "200": {
            "description": "OK"
          },
          "404": {
            "description": "Unknown parameters"
          },
          "500": {
            "$ref": "#/responses/Standard500ErrorResponse"
          }
        }
      }
    },
    "/events/{eventId}/handleViews/{userId}": {
      "parameters": [{
          "$ref": "#/parameters/eventId"
        },
        {
          "$ref": "#/parameters/userId"
        }
      ],
      "put": {
        "tags": [
          "events"
        ],
        "summary": "Handles the fact that a userId user sees an eventId event",
        "description": "",
        "responses": {
          "200": {
            "description": "OK",
            "schema": {
              "$ref": "#/definitions/Event"
            }
          },
          "404": {
            "description": "Unknown parameters"
          },
          "500": {
            "$ref": "#/responses/Standard500ErrorResponse"
          }
        }
      }
    },
    "/events/{eventId}/handleParticipants/{userId}": {
      "parameters": [{
          "$ref": "#/parameters/eventId"
        },
        {
          "$ref": "#/parameters/userId"
        },
        {
          "$ref": "#/parameters/willParticipate"
        }
      ],
      "put": {
        "tags": [
          "events"
        ],
        "summary": "Handles the fact that a userId user participates or not to eventId event",
        "description": "",
        "responses": {
          "200": {
            "description": "OK",
            "schema": {
              "$ref": "#/definitions/Event"
            }
          },
          "404": {
            "description": "Unknown parameters"
          },
          "500": {
            "$ref": "#/responses/Standard500ErrorResponse"
          }
        }
      }
    }
  },
  "definitions": {
    "Theme": {
      "type": "object",
      "required": [
        "id",
        "name",
        "createBy"
      ],
      "properties": {
        "id": {
          "type": "string"
        },
        "name": {
          "type": "string"
        },
        "cover": {
          "type": "string",
          "description": "Convertie en base64"
        },
        "subcribers": {
          "type": "array",
          "items": {
            "type": "string"
          },
          "default": [],
          "description": "Liste des identifiants des utilisateurs abonnés à ce thème."
        },
        "nbSubscriptions": {
          "type": "number",
          "default": 0
        },
        "createBy": {
          "type": "string",
          "description": "Identifiant de l'auteur de ce thème."
        },
        "createAt": {
          "type": "number",
          "example": 1564661114211,
          "description": "Date de création du thème, en millisecondes."
        }
      },
      "xml": {
        "name": "Theme"
      }
    },
    "Themes": {
      "type": "array",
      "items": {
        "$ref": "#/definitions/Theme"
      }
    },
    "User": {
      "type": "object",
      "required": [
        "login"
      ],
      "properties": {
        "id": {
          "type": "string"
        },
        "login": {
          "type": "string"
        },
        "llt_token": {
          "type": "string"
        },
        "jwt_token": {
          "type": "string"
        },
        "avatar": {
          "type": "string",
          "description": "Converti en base64"
        },
        "notifications": {
          "default": [],
          "description": "Les notifications relatif à cet utilisateurs.",
          "type": "array",
          "items": {
            "type": "object",
            "required": [
              "genre",
              "target",
              "content"
            ],
            "properties": {
              "id": {
                "type": "string"
              },
              "genre": {
                "type": "string",
                "enum": [
                  "event",
                  "theme"
                ],
                "description": "Savoir à quoi est lié cette notification (event, theme, ...)"
              },
              "target": {
                "type": "string",
                "description": "Identifiant de l'élément sur quoi porte cette notification (thème, évènement, ...)."
              },
              "content": {
                "type": "string"
              },
              "viewed": {
                "type": "boolean",
                "default": false,
                "description": "Savoir si oui ou non la notification a été vue"
              },
              "createAt": {
                "type": "number",
                "example": 1564661114211,
                "description": "Date de publication du commentaire, en millisecondes."
              }
            }
          }
        },
        "isAdmin": {
          "type": "boolean",
          "default": false
        },
        "enableNotification": {
          "type": "boolean",
          "default": true
        },
        "enableReminder": {
          "type": "boolean",
          "default": true
        },
        "createAt": {
          "type": "number",
          "example": 1564661114211
        }
      },
      "xml": {
        "name": "User"
      }
    },
    "Users": {
      "type": "array",
      "items": {
        "$ref": "#/definitions/User"
      }
    },
    "Event": {
      "type": "object",
      "required": [
        "id",
        "title",
        "theme",
        "description",
        "date",
        "author"
      ],
      "properties": {
        "id": {
          "type": "string"
        },
        "title": {
          "type": "string"
        },
        "theme": {
          "type": "string"
        },
        "description": {
          "type": "string"
        },
        "date": {
          "type": "number",
          "example": 1564661114211,
          "description": "Date à laquelle se seroulera l'évènement, en millisecondes."
        },
        "author": {
          "type": "string"
        },
        "cover": {
          "type": "string",
          "description": "Convertie en base64"
        },
        "location": {
          "type": "string"
        },
        "viewers": {
          "type": "array",
          "items": {
            "type": "string"
          },
          "description": "Identifiants des utilisateurs ayant vu cet évènement."
        },
        "participants": {
          "type": "array",
          "items": {
            "type": "string"
          },
          "description": "Identifiants des utilisateurs participant à cet évènement."
        },
        "comments": {
          "description": "Les commentaires publiés en relation avec cet évènement.",
          "type": "array",
          "items": {
            "type": "object",
            "required": [
              "id",
              "event",
              "author",
              "content"
            ],
            "properties": {
              "id": {
                "type": "string"
              },
              "event": {
                "type": "string",
                "description": "Identifiant de l'évènement sur quoi porte ce commentaire."
              },
              "author": {
                "type": "string",
                "description": "Identifiant de l'auteur du commentaire."
              },
              "content": {
                "type": "string"
              },
              "createAt": {
                "type": "number",
                "example": 1564661114211,
                "description": "Date de publication du commentaire, en millisecondes."
              }
            }
          }
        },
        "createAt": {
          "type": "number",
          "example": 1564661114211,
          "description": "Date de publication du commentaire, en millisecondes."
        }
      },
      "xml": {
        "name": "Event"
      }
    },
    "Events": {
      "type": "array",
      "items": {
        "$ref": "#/definitions/Event"
      }
    },
    "Notification": {
      "type": "object",
      "required": [
        "id",
        "genre",
        "target",
        "content"
      ],
      "properties": {
        "id": {
          "type": "string"
        },
        "genre": {
          "type": "string",
          "enum": [
            "event",
            "theme"
          ],
          "description": "Savoir à quoi est lié cette notification (event, theme, ...)"
        },
        "target": {
          "type": "string",
          "description": "Identifiant de l'élément sur quoi porte cette notification (thème, évènement, ...)."
        },
        "content": {
          "type": "string"
        },
        "viewed": {
          "type": "boolean",
          "default": false,
          "description": "Savoir si oui ou non la notification a été vue"
        },
        "createAt": {
          "type": "number",
          "example": 1564661114211,
          "description": "Date de publication du commentaire, en millisecondes."
        }
      },
      "xml": {
        "name": "Notification"
      }
    },
    "Comment": {
      "type": "object",
      "required": [
        "id",
        "event",
        "author",
        "content"
      ],
      "properties": {
        "id": {
          "type": "string"
        },
        "event": {
          "type": "string",
          "description": "Identifiant de l'évènement sur quoi porte ce commentaire."
        },
        "author": {
          "type": "string",
          "description": "Identifiant de l'auteur du commentaire."
        },
        "content": {
          "type": "string"
        },
        "createAt": {
          "type": "number",
          "example": 1564661114211,
          "description": "Date de publication du commentaire, en millisecondes."
        }
      },
      "xml": {
        "name": "Comment"
      }
    },
    "Error": {
      "properties": {
        "code": {
          "type": "string"
        },
        "message": {
          "type": "string"
        }
      }
    }
  },
  "responses": {
    "Standard500ErrorResponse": {
      "description": "An unexpected error server occured.",
      "schema": {
        "$ref": "#/definitions/Error"
      }
    }
  },
  "parameters": {
    "user": {
      "in": "body",
      "name": "body",
      "description": "User object that needs to be added to the application",
      "required": true,
      "schema": {
        "$ref": "#/definitions/User"
      }
    },
    "userId": {
      "in": "path",
      "name": "userId",
      "required": true,
      "type": "string",
      "description": "User's id that need to be managed"
    },
    "notification": {
      "in": "body",
      "name": "body",
      "description": "Notification object, about user having id userId, that needs to be added.",
      "required": true,
      "schema": {
        "$ref": "#/definitions/Notification"
      }
    },
    "notifId": {
      "in": "path",
      "name": "notifId",
      "required": true,
      "type": "string",
      "description": "Notification's id that need to be managed"
    },
    "theme": {
      "in": "body",
      "name": "body",
      "description": "Theme object that needs to be added to the application",
      "required": true,
      "schema": {
        "$ref": "#/definitions/Theme"
      }
    },
    "themeId": {
      "in": "path",
      "name": "themeId",
      "required": true,
      "type": "string",
      "description": "Theme's id that need to be managed"
    },
    "event": {
      "in": "body",
      "name": "body",
      "description": "Event object that needs to be added to the application",
      "required": true,
      "schema": {
        "$ref": "#/definitions/Theme"
      }
    },
    "eventId": {
      "in": "path",
      "name": "eventId",
      "required": true,
      "type": "string",
      "description": "Event's id that need to be managed"
    },
    "comment": {
      "in": "body",
      "name": "body",
      "description": "Comment object that needs to be added to the application",
      "required": true,
      "schema": {
        "$ref": "#/definitions/Comment"
      }
    },
    "commentId": {
      "in": "path",
      "name": "commentId",
      "required": true,
      "type": "string",
      "description": "Comment's id that need to be managed"
    },
    "willParticipate": {
      "name": "willParticipate",
      "in": "body",
      "required": true,
      "description": "Know if this userid user want participate or not to eventId event",
      "schema": {
        "type": "object",
        "required": [
          "willParticipate"
        ],
        "properties": {
          "willParticipate": {
            "type": "boolean"
          }
        }
      }
    }
  }
}